{
  "errors" : {
    "NoActionTaken" : {"status_code":"304", "user_error_code":"101", "status_code_text":"Not Modified", "user_message":"The request completed successfully, however no action was taken on the server.", "detail_url":""},
    "InvalidProtocol" : {"status_code":"400", "user_error_code":"100", "status_code_text":"Bad Request", "user_message":"The request was not made under a secure connection, all requests must be made under SSL.", "detail_url":""},
    "InvalidInput" : {"status_code":"400", "user_error_code":"101", "status_code_text":"Bad Request", "user_message":"One or more of the request inputs is not valid.", "detail_url":""},
    "InvalidHeaders" : {"status_code":"400", "user_error_code":"101.1", "status_code_text":"Bad Request", "user_message":"The request was missing one or more required header values.", "detail_url":""},
    "UnverifiedUserAccount" : {"status_code":"400", "user_error_code":"101", "status_code_text":"Bad Request", "user_message":"The email address has not be verified.", "detail_url":""},
    "InvalidUri" : {"status_code":"400", "user_error_code":"102", "status_code_text":"Bad Request", "user_message":"The requested URI does not represent any resource on the server.", "detail_url":""},
    "ActionNotPermitted" : {"status_code":"400", "user_error_code":"102.1", "status_code_text":"Bad Request", "user_message":"The request could not be carried out due to a constraint.", "detail_url":""},
    "InvalidAuthenticationInfo" : {"status_code":"403", "user_error_code":"103", "status_code_text":"Bad Request", "user_message":"The authentication information was not provided in the correct format. Verify the value of Authorization header.", "detail_url":""},
    "InvalidClientBearerToken" : {"status_code":"403", "user_error_code":"103.1", "status_code_text":"Bad Request", "user_message":"The client-bearer-token value provided in the correct format or invalid. Verify the value of Authorization header for this method of authorization.", "detail_url":""},
    "InvalidAutheticationScheme" : {"status_code":"403", "user_error_code":"103.2", "status_code_text":"Forbidden", "user_message":"The authentication scheme used is invalid.", "detail_url":""},
    "InvalidPermissions" : {"status_code":"403", "user_error_code":"103.3", "status_code_text":"Forbidden", "user_message":"You do not have the proper permissions to access this resource.", "detail_url":""},
    "AuthenticationFailed" : {"status_code":"403", "user_error_code":"104", "status_code_text":"Forbidden", "user_message":"The server failed to authenticate the request. Verify that the value of Authorization header is formed correctly and includes the signature.", "detail_url":""},
    "ResourceNotFound" : {"status_code":"404", "user_error_code":"105", "status_code_text":"Not Found", "user_message":"The specified resource does not exist.", "detail_url":""},
    "UnsupportedHttpVerb" : {"status_code":"405", "user_error_code":"106", "status_code_text":"Method Not Allowed", "user_message":"The resource doesn't support the specified HTTP verb.", "detail_url":""},
    "InternalError" : {"status_code":"500", "user_error_code":"107", "status_code_text":"Internal Server Error", "user_message":"The server encountered an internal error. Please retry the request.", "detail_url":""},
    "TemplateNotFound" : {"status_code":"500", "user_error_code":"108", "status_code_text":"Internal Server Error", "user_message":"The server encountered an internal error. Please retry the request.", "detail_url":""},
    "GatewayAuthenticationError": {"status_code":"403", "user_error_code":"104", "status_code_text":"Forbidden", "user_message":"There was an issue authenticating the request via the gateway.", "detail_url":""},
    "RequestTooLarge": {"status_code":"413", "user_error_code":"104", "status_code_text":"Forbidden", "user_message":"The request sent was too large.", "detail_url":""},
    "MessageNotFound": {"status_code":"404", "user_error_code":"104", "status_code_text":"Forbidden", "user_message":"The message was not found.", "detail_url":""},
    "MessageAlreadySent": {"status_code":"200", "user_error_code":"104", "status_code_text":"Forbidden", "user_message":"The message has already been sent so everything is in the clear.", "detail_url":""}
  },
  "sections" : [
    {
      "section": "General",
      "title": "General",
      "intro": "Intro into section."
    },
    {
      "section": "Utils",
      "title": "Utils",
      "intro": "Intro into section."
    }
  ],
  "routes" : [
    {
      "title" : "Health Check",
      "description" : "System health check",
      "authentication": false,
      "section" : "Utils",
      "caching" : false,
      "endpoint" : "/",
      "method" : "get",
      "library" : "../handlers/api.js",
      "callback" : "health",
      "parameters" : {},
      "client_library": {
        "function_name": "healthCheck"
      },
      "unit_test" : {
        "include" : true
      }
    },
      {
          "title" : "List accounts",
          "description" : "Get a list of all accounts",
          "authentication": false,
          "section" : "Utils",
          "caching" : false,
          "endpoint" : "/v1/accounts",
          "method" : "get",
          "library" : "../handlers/api.js",
          "callback" : "listaccount",
          "parameters" : {},
          "client_library": {
              "function_name": "listaccount"
          },
          "unit_test" : {
              "include" : true
          }
      },
      {
          "title" : "List Emails",
          "description" : "Get a list of all default email subscriptions",
          "authentication": false,
          "section" : "Utils",
          "caching" : false,
          "endpoint" : "/v1/emails",
          "method" : "get",
          "library" : "../handlers/api.js",
          "callback" : "listemail",
          "parameters" : {},
          "client_library": {
              "function_name": "listemail"
          },
          "unit_test" : {
              "include" : true
          }
      },
      {
          "title" : "Delete content",
          "description" : "Deletes content from a batch based on content id",
          "authentication": false,
          "section" : "General",
          "caching" : false,
          "endpoint" : "/v1/accounts/:account_id/groups/:group_id/emails/:email_id/batches/:batch_id/content/:content_id",
          "endpoint_parameters" : {
              "account_id": {"example": "my-sample-account"},
              "group_id":{"example":"my-sample-group"},
              "email_id":{"example":"sample-email-sub"},
              "batch_id":{"example":"sample-batch-id"},
              "content_id":{"example":"UUID"}
          },
          "method" : "delete",
          "library" : "../handlers/email.js",
          "callback" : "deletecontent",
          "event" : "batch.deletecontent",
          "parameters" : {
          },
          "client_library": {
              "function_name": "deleteContent"
          }
      },
    {
      "title" : "Health Check",
      "description" : "System health check",
      "authentication": false,
      "section" : "Utils",
      "caching" : false,
      "endpoint" : "/v1/health",
      "method" : "get",
      "library" : "../handlers/api.js",
      "callback" : "health",
      "parameters" : {},
      "client_library": {
        "function_name": "healthCheck"
      },
      "unit_test" : {
        "include" : true
      }
    },
      {
          "title" : "List batch content",
          "description" : "List the content of a batch based off of batch id",
          "authentication": false,
          "section" : "General",
          "caching" : false,
          "endpoint" : "/v1/accounts/:account_id/groups/:group_id/batches/:batch_id",
          "endpoint_parameters" : {
              "account_id": {"example": "my-sample-account"},
              "group_id": {"example": "my-sample-group"},
              "batch_id": {"example": "my-sample-batchid"}
          },
          "method" : "get",
          "library" : "../handlers/accounts.js",
          "callback" : "listContent",
          "event" : "account.list-content",
          "parameters" : {},
          "client_library": {
              "function_name": "listContent"
          }
      },
      {
          "title" : "Get group batches",
          "description" : "",
          "authentication": false,
          "section" : "General",
          "caching" : false,
          "endpoint" : "/v1/accounts/:account_id/groups/:group_id/batches",
          "endpoint_parameters" : {
              "account_id": {"example": "my-sample-account"},
              "group_id": {"example": "my-sample-group"}
          },
          "method" : "get",
          "library" : "../handlers/accounts.js",
          "callback" : "listGroupBatches",
          "event" : "account.list-batch",
          "parameters" : {
              "application_id" : {"required" : false,"type" : "string","regex" : false, "description" : "application_id","example" : "smarterservices"}
          },
          "client_library": {
              "function_name": "listGroupBatches"
          }
      },
    {
      "title" : "Send Batch",
      "description" : "Sends a batch based on the details submitted",
      "authentication": false,
      "section" : "General",
      "caching" : false,
      "endpoint" : "/v1/batches/send",
      "method" : "post",
      "library" : "../handlers/email.js",
      "callback" : "send",
      "event" : "batch.send",
      "parameters" : {
        "application_id" : {"required" : false,"type" : "string","regex" : false,"description" : "The application id that the batch belongs to.","example" : "development"},
        "batch_id" : {"required" : false,"type" : "string","regex" : false, "description" : "The actual batch id to send.","example" : ""}
      },
      "client_library": {
        "function_name": "send"
      }
    },
      {
          "title" : "Update account group",
          "description" : "Update an existing account group",
          "authentication": false,
          "section" : "General",
          "caching" : false,
          "endpoint" : "/v1/account/:account_id/groups/:group_id",
          "endpoint_parameters" : {
              "account_id": {"example": "my-sample-account"},
              "group_id": {"example": "my-sample-group"}
          },
          "method" : "put",
          "library" : "../handlers/accounts.js",
          "callback" : "updateGroup",
          "event" : "batch.update-group",
          "parameters" : {
              "application_id" : {"required" : false,"type" : "string","regex" : false,"description" : "The application id that the batch belongs to.","example" : "development"},
              "email_id" : {"required" : false,"type" : "string","regex" : false,"description" : "The unique name of the email they will receive","example" : "email-sub-name"},
              "subject" : {"required" : false,"type" : "string","regex" : false,"description" : "The unique subject to override mandrall","example" : "This is a unique subject"},
              "template" : {"required" : false,"type" : "string","regex" : false,"description" : "This will be used to override template eventually","example" : "Temp-id"},
              "frequency" : {"required" : false,"type" : "string","regex" : false,"description" : "Cron format for frequency of receiving emails","example" : "3 * * * * "},
              "to" : {"required" : false,"type" : "string","regex" : false,"description" : "Emails sent to separated by , for more then one","example" : "jordan@gmail.com,jason@yahoo.com"},
              "bcc" : {"required" : false,"type" : "string","regex" : false,"description" : "Emails sent bcc separated by , for more then one","example" : "jordan@gmail.com,jason@yahoo.com"}
          },
          "client_library": {
              "function_name": "updateGroup"
          }
      },
      {
          "title" : "Add account group",
          "description" : "Adds a new account group",
          "authentication": false,
          "section" : "General",
          "caching" : false,
          "endpoint" : "/v1/account/:account_id/groups",
          "endpoint_parameters" : {
              "account_id": {"example": "my-sample-account"}
          },
          "method" : "post",
          "library" : "../handlers/accounts.js",
          "callback" : "addGroup",
          "event" : "batch.add-group",
          "parameters" : {
              "application_id" : {"required" : false,"type" : "string","regex" : false,"description" : "The application id that the batch belongs to.","example" : "development"},
              "email_id" : {"required" : false,"type" : "string","regex" : false,"description" : "The unique name of the email they will receive","example" : "email-sub-name"},
              "subject" : {"required" : false,"type" : "string","regex" : false,"description" : "The unique subject to override mandrall","example" : "This is a unique subject"},
              "template" : {"required" : false,"type" : "string","regex" : false,"description" : "This will be used to override template eventually","example" : "Temp-id"},
              "frequency" : {"required" : false,"type" : "string","regex" : false,"description" : "Cron format for frequency of receiving emails","example" : "3 * * * * "},
              "to" : {"required" : false,"type" : "string","regex" : false,"description" : "Emails sent to separated by , for more then one","example" : "jordan@gmail.com,jason@yahoo.com"},
              "bcc" : {"required" : false,"type" : "string","regex" : false,"description" : "Emails sent bcc separated by , for more then one","example" : "jordan@gmail.com,jason@yahoo.com"},
              "group_id" : {"required" : false,"type" : "string","regex" : false,"description" : "The id of the group your creating for the account","example" : "teacher-group-a"}
          },
          "client_library": {
              "function_name": "addGroup"
          }
      },
      {
          "title" : "Get account group",
          "description" : "get an account group",
          "authentication": false,
          "section" : "General",
          "caching" : false,
          "endpoint" : "/v1/accounts/:account_id/groups/:group_id",
          "endpoint_parameters" : {
              "account_id": {"example": "my-sample-account"},
              "group_id": {"example": "my-sample-group"}
          },
          "method" : "get",
          "library" : "../handlers/accounts.js",
          "callback" : "getGroup",
          "event" : "batch.get-group",
          "parameters" : {
              "email_id" : {"required" : false,"type" : "string","regex" : false,"description" : "The unique name of the email they will receive","example" : "email-sub-name"}
          },
          "client_library": {
              "function_name": "getGroup"
          }
      },
      {
          "title" : "Add content",
          "description" : "Adds content to a batch or creates a new batch",
          "authentication": false,
          "section" : "General",
          "caching" : false,
          "endpoint" : "/v1/accounts/:account_id/groups/:group_id/emails/:email_id/content",
          "endpoint_parameters" : {
              "account_id": {"example": "my-sample-account"},
              "group_id":{"example":"my-sample-group"},
              "email_id":{"example":"sample-email-sub"}
          },
          "method" : "post",
          "library" : "../handlers/email.js",
          "callback" : "add",
          "event" : "batch.add",
          "parameters" : {
              "application_id" : {"required" : false,"type" : "string","regex" : false,"description" : "The application id that the batch belongs to.","example" : "development"},
              "content_id" : {"required" : false,"type" : "string","regex" : false, "description" : "The id of the content to be inserted","example" : "UUID"},
              "content" : {"required" : false,"type" : "string","regex" : false, "description" : "The content to be added","example" : "This will be the body of the email"}
          },
          "client_library": {
              "function_name": "addContent"
          }
      },
      {
          "title" : "Remove batch",
          "description" : "",
          "authentication": false,
          "section" : "General",
          "caching" : false,
          "endpoint" : "/v1/accounts/:account_id/groups/:group_id/batches/:batch_id",
          "endpoint_parameters" : {
              "account_id": {"example": "my-sample-account"},
              "group_id": {"example": "my-sample-group"},
              "batch_id": {"example": "my-sample-batch"}
          },
          "method" : "delete",
          "library" : "../handlers/email.js",
          "callback" : "removeBatch",
          "event" : "account.remove-batch",
          "parameters" : {
          },
          "client_library": {
              "function_name": "removeBatch"
          }
      },
      {
          "title" : "Get Content",
          "description" : "get content from a batch based on content id",
          "authentication": false,
          "section" : "General",
          "caching" : false,
          "endpoint" : "/v1/accounts/:account_id/groups/:group_id/emails/:email_id/content/:content_id",
          "endpoint_parameters" : {
              "account_id": {"example": "my-sample-account"},
              "group_id":{"example":"my-sample-group"},
              "email_id":{"example":"sample-email-sub"},
              "content_id":{"example":"UUID"}
          },
          "method" : "get",
          "library" : "../handlers/email.js",
          "callback" : "getcontent",
          "event" : "batch.getcontent",
          "parameters" : {
              "application_id" : {"required" : false,"type" : "string","regex" : false,"description" : "The application id that the batch belongs to.","example" : "development"},
              "batch_id" : {"required" : false,"type" : "string","regex" : false, "description" : "id of the batch","example" : "UUID"}
          },
          "client_library": {
              "function_name": "getContent"
          }
      },
      {
          "title" : "Update content",
          "description" : "Updates content based on params",
          "authentication": false,
          "section" : "General",
          "caching" : false,
          "endpoint" : "/v1/accounts/:account_id/groups/:group_id/emails/:email_id/content/:content_id",
          "endpoint_parameters" : {
              "account_id": {"example": "my-sample-account"},
              "group_id":{"example":"my-sample-group"},
              "email_id":{"example":"sample-email-sub"},
              "content_id":{"example":"UUID"}
          },
          "method" : "put",
          "library" : "../handlers/email.js",
          "callback" : "updatecontent",
          "event" : "batch.updatecontent",
          "parameters" : {
              "application_id" : {"required" : false,"type" : "string","regex" : false,"description" : "The application id that the batch belongs to.","example" : "development"},
              "content" : {"required" : false,"type" : "string","regex" : false, "description" : "The content that will be used to update","example" : "The content that will be updated"}
          },
          "client_library": {
              "function_name": "updatecontent"
          }
      },
      {
          "title" : "Remove Account Group",
          "description" : "",
          "authentication": false,
          "section" : "General",
          "caching" : false,
          "endpoint" : "/v1/accounts/:account_id/groups/:group_id",
          "endpoint_parameters" : {
              "account_id": {"example": "my-sample-account"},
              "group_id": {"example": "my-sample-group"}
          },
          "method" : "delete",
          "library" : "../handlers/accounts.js",
          "callback" : "removeGroup",
          "event" : "account.remove-group",
          "parameters" : {
              "email_id" : {"required" : false,"type" : "string","regex" : false, "description" : "email_id","example" : "email-sub-name"},
              "application_id" : {"required" : false,"type" : "string","regex" : false, "description" : "application_id","example" : "smarterservices"}
          },
          "client_library": {
              "function_name": "removeGroup"
          }
      },
      {
          "title" : "List Account groups",
          "description" : "",
          "authentication": false,
          "section" : "General",
          "caching" : false,
          "endpoint" : "/v1/accounts/:account_id/groups",
          "endpoint_parameters" : {
              "account_id": {"example": "my-sample-account"}
          },
          "method" : "get",
          "library" : "../handlers/accounts.js",
          "callback" : "listGroup",
          "event" : "account.list-group",
          "parameters" : {
              "application_id" : {"required" : false,"type" : "string","regex" : false, "description" : "application_id","example" : "smarterservices"}
          },
          "client_library": {
              "function_name": "listGroup"
          }
      },
      {
          "title" : "List email Content",
          "description" : "",
          "authentication": false,
          "section" : "General",
          "caching" : false,
          "endpoint" : "/v1/accounts/:account_id/groups/:group_id/emails/:email_id/content",
          "endpoint_parameters" : {
              "account_id": {"example": "my-sample-account"},
              "group_id": {"example": "my-sample-group"},
              "email_id": {"example": "my-sample-email"}
          },
          "method" : "get",
          "library" : "../handlers/accounts.js",
          "callback" : "listEmailContent",
          "event" : "account.list-content",
          "parameters" : {},
          "client_library": {
              "function_name": "listEmailContent"
          }
      },
      {
          "title" : "Get group email",
          "description" : "",
          "authentication": false,
          "section" : "General",
          "caching" : false,
          "endpoint" : "/v1/accounts/:account_id/groups/:group_id/emails/:email_id",
          "endpoint_parameters" : {
              "account_id": {"example": "my-sample-account"},
              "group_id": {"example": "my-sample-group"},
              "email_id": {"example": "my-sample-email"}
          },
          "method" : "get",
          "library" : "../handlers/accounts.js",
          "callback" : "getGroupEmail",
          "event" : "account.get-email",
          "parameters" : {},
          "client_library": {
              "function_name": "getGroupEmail"
          }
      },
      {
          "title" : "List group emails",
          "description" : "",
          "authentication": false,
          "section" : "General",
          "caching" : false,
          "endpoint" : "/v1/accounts/:account_id/groups/:group_id/emails",
          "endpoint_parameters" : {
              "account_id": {"example": "my-sample-account"},
              "group_id": {"example": "my-sample-group"}
          },
          "method" : "get",
          "library" : "../handlers/accounts.js",
          "callback" : "listGroupEmail",
          "event" : "account.list-email",
          "parameters" : {},
          "client_library": {
              "function_name": "listGroupEmail"
          }
      }
  ]
}